{
  "version": 2,
  "cli": { "defaultCollection": "@nrwl/nest" },
  "defaultProject": "api",
  "generators": {
    "@nrwl/react": {
      "application": { "style": "scss", "linter": "eslint", "babel": true },
      "component": { "style": "scss" },
      "library": { "style": "scss", "linter": "eslint" }
    },
    "@nrwl/next": { "application": { "style": "scss", "linter": "eslint" } }
  },
  "projects": {
    "api": {
      "root": "apps/api",
      "sourceRoot": "apps/api/src",
      "projectType": "application",
      "prefix": "api",
      "targets": {
        "build": {
          "executor": "@nrwl/node:build",
          "outputs": ["{options.outputPath}"],
          "options": {
            "outputPath": "dist/apps/api",
            "main": "apps/api/src/main.ts",
            "tsConfig": "apps/api/tsconfig.app.json",
            "assets": ["apps/api/src/assets"],
            "generatePackageJson": true
          },
          "configurations": {
            "production": {
              "optimization": true,
              "extractLicenses": true,
              "inspect": false,
              "fileReplacements": [
                {
                  "replace": "apps/api/src/environments/environment.ts",
                  "with": "apps/api/src/environments/environment.prod.ts"
                }
              ]
            }
          }
        },
        "serve": {
          "executor": "@nrwl/node:execute",
          "options": { "buildTarget": "api:build" }
        },
        "lint": {
          "executor": "@nrwl/linter:eslint",
          "options": { "lintFilePatterns": ["apps/api/**/*.ts"] }
        },
        "test": {
          "executor": "@nrwl/jest:jest",
          "outputs": ["coverage/apps/api"],
          "options": {
            "jestConfig": "apps/api/jest.config.js",
            "passWithNoTests": true
          }
        }
      }
    },
    "web": {
      "root": "apps/web",
      "sourceRoot": "apps/web",
      "projectType": "application",
      "targets": {
        "build": {
          "executor": "@nrwl/next:build",
          "outputs": ["{options.outputPath}"],
          "options": { "root": "apps/web", "outputPath": "dist/apps/web" },
          "configurations": { "production": {} }
        },
        "serve": {
          "executor": "@nrwl/next:server",
          "options": { "buildTarget": "web:build", "dev": true },
          "configurations": {
            "production": {
              "buildTarget": "web:build:production",
              "dev": false
            }
          }
        },
        "export": {
          "executor": "@nrwl/next:export",
          "options": { "buildTarget": "web:build:production" }
        },
        "test": {
          "executor": "@nrwl/jest:jest",
          "outputs": ["coverage/apps/web"],
          "options": {
            "jestConfig": "apps/web/jest.config.js",
            "passWithNoTests": true
          }
        },
        "lint": {
          "executor": "@nrwl/linter:eslint",
          "options": { "lintFilePatterns": ["apps/web/**/*.{ts,tsx,js,jsx}"] }
        }
      }
    },
    "xor-ui": {
      "root": "libs/xor-ui",
      "sourceRoot": "libs/xor-ui/src",
      "projectType": "library",
      "targets": {
        "build": {
          "executor": "@nrwl/web:package",
          "outputs": ["{options.outputPath}"],
          "options": {
            "outputPath": "dist/libs/xor-ui",
            "tsConfig": "libs/xor-ui/tsconfig.lib.json",
            "project": "libs/xor-ui/package.json",
            "entryFile": "libs/xor-ui/src/index.ts",
            "external": ["react", "react-dom"],
            "babelConfig": "@nrwl/react/plugins/bundle-babel",
            "rollupConfig": "@nrwl/react/plugins/bundle-rollup",
            "assets": [{ "glob": "README.md", "input": ".", "output": "." }]
          }
        },
        "lint": {
          "executor": "@nrwl/linter:eslint",
          "options": {
            "lintFilePatterns": ["libs/xor-ui/**/*.{ts,tsx,js,jsx}"]
          }
        },
        "test": {
          "executor": "@nrwl/jest:jest",
          "outputs": ["coverage/libs/xor-ui"],
          "options": {
            "jestConfig": "libs/xor-ui/jest.config.js",
            "passWithNoTests": true
          }
        },
        "storybook": {
          "executor": "@nrwl/storybook:storybook",
          "options": {
            "uiFramework": "@storybook/react",
            "port": 4400,
            "config": { "configFolder": "libs/xor-ui/.storybook" }
          },
          "configurations": { "ci": { "quiet": true } }
        },
        "build-storybook": {
          "executor": "@nrwl/storybook:build",
          "outputs": ["{options.outputPath}"],
          "options": {
            "uiFramework": "@storybook/react",
            "outputPath": "dist/storybook/xor-ui",
            "config": { "configFolder": "libs/xor-ui/.storybook" }
          },
          "configurations": { "ci": { "quiet": true } }
        }
      }
    },
    "api-ui": {
      "root": "libs/api-ui",
      "sourceRoot": "libs/api-ui/src",
      "projectType": "library",
      "targets": {
        "lint": {
          "executor": "@nrwl/linter:eslint",
          "options": {
            "lintFilePatterns": ["libs/api-ui/**/*.{ts,tsx,js,jsx}"]
          }
        },
        "test": {
          "executor": "@nrwl/jest:jest",
          "outputs": ["coverage/libs/api-ui"],
          "options": {
            "jestConfig": "libs/api-ui/jest.config.js",
            "passWithNoTests": true
          }
        }
      }
    },
    "domain": {
      "root": "libs/domain",
      "sourceRoot": "libs/domain/src",
      "projectType": "library",
      "targets": {
        "generate": {
          "executor": "@nrwl/workspace:run-commands",
          "options": {
            "commands": [
              {
                "command": "npx graphql-codegen --config libs/domain/codegen.yml"
              }
            ]
          }
        },
        "lint": {
          "executor": "@nrwl/linter:eslint",
          "options": {
            "lintFilePatterns": ["libs/domain/**/*.{ts,tsx,js,jsx}"]
          }
        },
        "test": {
          "executor": "@nrwl/jest:jest",
          "outputs": ["coverage/libs/domain"],
          "options": {
            "jestConfig": "libs/domain/jest.config.js",
            "passWithNoTests": true
          }
        }
      }
    },
    "app": {
      "root": "apps/app",
      "sourceRoot": "apps/app/src",
      "projectType": "application",
      "targets": {
        "build": {
          "executor": "@nrwl/web:build",
          "outputs": ["{options.outputPath}"],
          "options": {
            "outputPath": "dist/apps/app",
            "index": "apps/app/src/index.html",
            "main": "apps/app/src/main.tsx",
            "polyfills": "apps/app/src/polyfills.ts",
            "tsConfig": "apps/app/tsconfig.app.json",
            "assets": ["apps/app/src/favicon.ico", "apps/app/src/assets"],
            "styles": ["apps/app/src/styles.scss"],
            "scripts": [],
            "webpackConfig": "@nrwl/react/plugins/webpack"
          },
          "configurations": {
            "production": {
              "fileReplacements": [
                {
                  "replace": "apps/app/src/environments/environment.ts",
                  "with": "apps/app/src/environments/environment.prod.ts"
                }
              ],
              "optimization": true,
              "outputHashing": "all",
              "sourceMap": false,
              "extractCss": true,
              "namedChunks": false,
              "extractLicenses": true,
              "vendorChunk": false,
              "budgets": [
                {
                  "type": "initial",
                  "maximumWarning": "2mb",
                  "maximumError": "5mb"
                }
              ]
            }
          }
        },
        "serve": {
          "executor": "@nrwl/web:dev-server",
          "options": { "buildTarget": "app:build" },
          "configurations": {
            "production": { "buildTarget": "app:build:production" }
          }
        },
        "lint": {
          "executor": "@nrwl/linter:eslint",
          "options": { "lintFilePatterns": ["apps/app/**/*.{ts,tsx,js,jsx}"] }
        },
        "test": {
          "executor": "@nrwl/jest:jest",
          "outputs": ["coverage/apps/app"],
          "options": {
            "jestConfig": "apps/app/jest.config.js",
            "passWithNoTests": true
          }
        }
      }
    },
    "app-electron": {
      "root": "apps/app-electron",
      "sourceRoot": "apps/app-electron/src",
      "projectType": "application",
      "prefix": "app-electron",
      "targets": {
        "build": {
          "executor": "nx-electron:build",
          "options": {
            "outputPath": "dist/apps/app-electron",
            "main": "apps/app-electron/src/main.ts",
            "tsConfig": "apps/app-electron/tsconfig.app.json",
            "assets": ["apps/app-electron/src/assets"]
          },
          "configurations": {
            "production": {
              "optimization": true,
              "extractLicenses": true,
              "inspect": false,
              "fileReplacements": [
                {
                  "replace": "apps/app-electron/src/environments/environment.ts",
                  "with": "apps/app-electron/src/environments/environment.prod.ts"
                }
              ]
            }
          }
        },
        "serve": {
          "executor": "nx-electron:execute",
          "options": { "buildTarget": "app-electron:build" }
        },
        "package": {
          "executor": "nx-electron:package",
          "options": {
            "name": "app-electron",
            "frontendProject": "app",
            "outputPath": "dist/packages",
            "prepackageOnly": true
          }
        },
        "make": {
          "executor": "nx-electron:make",
          "options": {
            "name": "app-electron",
            "frontendProject": "app",
            "outputPath": "dist/executables"
          }
        },
        "lint": {
          "executor": "@nrwl/linter:eslint",
          "options": { "lintFilePatterns": ["apps/app-electron/**/*.ts"] }
        },
        "test": {
          "executor": "@nrwl/jest:jest",
          "outputs": ["coverage/apps/app-electron"],
          "options": {
            "jestConfig": "apps/app-electron/jest.config.js",
            "passWithNoTests": true
          }
        }
      }
    }
  }
}
